[{"id":1,"first_name":"Terrel","last_name":"Kintish","email":"tkintish0@sohu.com","password":"IQfgQlDDq2Z"},
{"id":2,"first_name":"Darwin","last_name":"Weiner","email":"dweiner1@state.gov","password":"PzY64wUvro"},
{"id":3,"first_name":"Phedra","last_name":"Segebrecht","email":"psegebrecht2@senate.gov","password":"HiHGNGNyTT"},
{"id":4,"first_name":"Prent","last_name":"Crosscombe","email":"pcrosscombe3@addthis.com","password":"0XB9CYQzK"},
{"id":5,"first_name":"Lynelle","last_name":"Benyan","email":"lbenyan4@hostgator.com","password":"iwKw9sAic"},
{"id":6,"first_name":"Benedikt","last_name":"Woolis","email":"bwoolis5@aol.com","password":"ZM40Bfq6DFrA"},
{"id":7,"first_name":"Chris","last_name":"Pigott","email":"cpigott6@noaa.gov","password":"0aa7Rfgppp"},
{"id":8,"first_name":"Alessandro","last_name":"Romaines","email":"aromaines7@123-reg.co.uk","password":"cXS9CR"},
{"id":9,"first_name":"Piggy","last_name":"Graalman","email":"pgraalman8@ustream.tv","password":"uEJj8mPI3W28"},
{"id":10,"first_name":"Duky","last_name":"Stearnes","email":"dstearnes9@lulu.com","password":"Ewyk7sT"},
{"id":11,"first_name":"Elga","last_name":"Fealy","email":"efealya@squarespace.com","password":"tqiBWdd"},
{"id":12,"first_name":"Jarret","last_name":"Gutcher","email":"jgutcherb@amazon.co.jp","password":"GUF5o9"},
{"id":13,"first_name":"Mandie","last_name":"Winger","email":"mwingerc@shop-pro.jp","password":"4xUP1wi"},
{"id":14,"first_name":"Shelia","last_name":"Barme","email":"sbarmed@nytimes.com","password":"cuM4xVEEvfIV"},
{"id":15,"first_name":"Dieter","last_name":"Linster","email":"dlinstere@mit.edu","password":"CRucfxTyzKk"},
{"id":16,"first_name":"Una","last_name":"Pawellek","email":"upawellekf@github.com","password":"BtsFtORdYVui"},
{"id":17,"first_name":"Margalit","last_name":"Monnery","email":"mmonneryg@ifeng.com","password":"RbhjOWOLknaP"},
{"id":18,"first_name":"Berna","last_name":"Zanazzi","email":"bzanazzih@cam.ac.uk","password":"DTRhm6vFERL"},
{"id":19,"first_name":"Faustine","last_name":"Avrahm","email":"favrahmi@nydailynews.com","password":"goGnlvMiPsC"},
{"id":20,"first_name":"Haze","last_name":"Castleman","email":"hcastlemanj@stumbleupon.com","password":"NkxGo0"},
{"id":21,"first_name":"Valentine","last_name":"Loughlan","email":"vloughlank@qq.com","password":"DjMtnpLcJvN2"},
{"id":22,"first_name":"Lura","last_name":"Yesichev","email":"lyesichevl@alibaba.com","password":"LSet0QLXBCFZ"},
{"id":23,"first_name":"Feodor","last_name":"Hugenin","email":"fhugeninm@mlb.com","password":"KXIu6uR6"},
{"id":24,"first_name":"Kim","last_name":"Jesteco","email":"kjestecon@weibo.com","password":"koqRSvsuU"},
{"id":25,"first_name":"Witty","last_name":"Ramalho","email":"wramalhoo@freewebs.com","password":"RiJtTT"},
{"id":26,"first_name":"Sergio","last_name":"Crallan","email":"scrallanp@simplemachines.org","password":"2HWK3IwU"},
{"id":27,"first_name":"Luz","last_name":"Glozman","email":"lglozmanq@omniture.com","password":"guFoM73c5X"},
{"id":28,"first_name":"Deane","last_name":"Mariet","email":"dmarietr@nifty.com","password":"P9xv1CYy2"},
{"id":29,"first_name":"Sean","last_name":"Meier","email":"smeiers@issuu.com","password":"kp97Pd0G"},
{"id":30,"first_name":"Maryellen","last_name":"Vallentine","email":"mvallentinet@cbc.ca","password":"wSPOxP9tFH"},
{"id":31,"first_name":"Betti","last_name":"Oultram","email":"boultramu@4shared.com","password":"K1Y7XW7py"},
{"id":32,"first_name":"Norry","last_name":"Brawn","email":"nbrawnv@ted.com","password":"aVz4WPO"},
{"id":33,"first_name":"Margarete","last_name":"Bosley","email":"mbosleyw@eventbrite.com","password":"IMOd51"},
{"id":34,"first_name":"Daloris","last_name":"Valenta","email":"dvalentax@unesco.org","password":"dplX8UY4vv"},
{"id":35,"first_name":"Paddy","last_name":"Chadderton","email":"pchaddertony@tuttocitta.it","password":"UVjyUYQ"},
{"id":36,"first_name":"Stinky","last_name":"Shark","email":"ssharkz@flavors.me","password":"n99Fz9Kq"},
{"id":37,"first_name":"Tate","last_name":"Downe","email":"tdowne10@ed.gov","password":"5Hakvs"},
{"id":38,"first_name":"Ethan","last_name":"Norster","email":"enorster11@skype.com","password":"2KvmaRZwttCa"},
{"id":39,"first_name":"Skelly","last_name":"Cram","email":"scram12@gnu.org","password":"vVEARjs3GAPM"},
{"id":40,"first_name":"Hoyt","last_name":"Scibsey","email":"hscibsey13@blog.com","password":"QXRKJx"},
{"id":41,"first_name":"Ronni","last_name":"Sampson","email":"rsampson14@studiopress.com","password":"zssbsba"},
{"id":42,"first_name":"Reuven","last_name":"Mose","email":"rmose15@senate.gov","password":"9RcAtJQxgFf"},
{"id":43,"first_name":"Laughton","last_name":"Arnoud","email":"larnoud16@domainmarket.com","password":"JJdAst2"},
{"id":44,"first_name":"Denny","last_name":"Kibbee","email":"dkibbee17@yale.edu","password":"7ObIs1m"},
{"id":45,"first_name":"Duff","last_name":"Gettins","email":"dgettins18@nature.com","password":"0uvycPoq3"},
{"id":46,"first_name":"Harlie","last_name":"Ratray","email":"hratray19@mysql.com","password":"vnI5aI"},
{"id":47,"first_name":"Brena","last_name":"Sawyers","email":"bsawyers1a@360.cn","password":"NKIHAP"},
{"id":48,"first_name":"Neddy","last_name":"Sidney","email":"nsidney1b@npr.org","password":"8zmtr0Hb"},
{"id":49,"first_name":"Kelcey","last_name":"Larwood","email":"klarwood1c@oakley.com","password":"l5RHLMT"},
{"id":50,"first_name":"Miran","last_name":"Ubsdall","email":"mubsdall1d@nydailynews.com","password":"Nv7DeyPab"}]